Data Science for Business - Time Series Forecasting Part 1: EDA & Data Preparation
…
Items

Also of interest are the items that are being purchases or returned. Here, we sum up the net quantities for each item.

retail %>%
  group_by(StockCode, Description) %>%
  summarise(sum = sum(Quantity)) %>%
  arrange(-sum)

## Source: local data frame [5,749 x 3]
## Groups: StockCode [4,070]
## 
## # A tibble: 5,749 x 3
##    StockCode                        Description   sum
##        <chr>                              <chr> <int>
##  1     84077  WORLD WAR 2 GLIDERS ASSTD DESIGNS 53847
##  2    85099B            JUMBO BAG RED RETROSPOT 47363
##  3     84879      ASSORTED COLOUR BIRD ORNAMENT 36381
##  4     22197                     POPCORN HOLDER 36334
##  5     21212    PACK OF 72 RETROSPOT CAKE CASES 36039
##  6    85123A WHITE HANGING HEART T-LIGHT HOLDER 35025
##  7     23084                 RABBIT NIGHT LIGHT 30680
##  8     22492             MINI PAINT SET VINTAGE 26437
##  9     22616          PACK OF 12 LONDON TISSUES 26315
## 10     21977 PACK OF 60 PINK PAISLEY CAKE CASES 24753
## # ... with 5,739 more rows
…
